Multi-level modelling and data visualisation in R
…
In part of their study, 78 participants completed a Word search game six times.

Do participants get better with practice?

Levari, D. E., Gilbert, D. T., & Wilson, T. D. (2022). Tips from the top: Do the best performers really give the best advice? Psychological Science, 33(5), 685-698.

Data Import

d <- read_csv("data/study2_advisor_improvement.csv",
              col_types = "fii")

It is good practice to use col_types to make sure read_csv() reads in the data in the correct format.

# A tibble: 468 × 3
   participant score roundnum
   <fct>       <int>    <int>
 1 ad01            9        1
 2 ad01            6        2
 3 ad01            9        3
 4 ad01           10        4
 5 ad01           13        5
 6 ad01           11        6
 7 ad21           15        1
 8 ad21           25        2
 9 ad21           20        3
10 ad21           24        4
# ℹ 458 more rows
…
